{"meaning":{"identity":"Reality Inventory Authority","mission":"公開中の製品 Reality を一覧として提供する","user_intent":"存在する製品を一覧で確認したい","meaning_statement":"Reality Inventory 全体を公開するページ","existence_reason":"検索・発見・巡回の基盤を提供するため"},"presentation":{"title":"PC商品一覧","subtitle":"公開中のPCを一覧から探す","description":"公開中のPCをメーカー・価格・スペックなどから一覧で比較できます。"},"seo":{"title":"PC製品一覧 (1178製品)","description":"1178製品のReality Inventory","keywords":["PC","Products","Inventory","Semantic"],"canonical":"/catalog/","schema_jsonld":{"@context":"https://schema.org","@type":"CollectionPage","name":"Reality Inventory Authority"},"open_graph":{"title":"PC製品一覧 (1178製品)","description":"1178製品のReality Inventory","url":"/catalog/","image":"/images/ogp/default.webp"},"twitter":{"card":"summary_large_image","title":"PC製品一覧 (1178製品)","description":"1178製品のReality Inventory","image":"/images/ogp/default.webp"}},"data":{"count":1178,"page":1,"page_size":20,"sort":"maker","search":null,"has_next":true,"products":[{"unique_id":"ASUS_CM1405CM4A-4128PG","name":"ASUS Chromebook CM14 (CM1405) (CM1405CM4A-4128PG)","maker":"asus","price":69800,"image_url":"https://store.asus.com/jp/media/catalog/product/c/m/cm1405cm4a_1500_00_1stlook_4gb_128gb_grey.jpg","updated_at":"2026-07-18T13:56:48.324267Z"},{"unique_id":"ASUS_CM1405CM4A-M4128QB","name":"ASUS Chromebook CM14 (CM1405) (CM1405CM4A-M4128QB)","maker":"asus","price":69800,"image_url":"https://store.asus.com/jp/media/catalog/product/c/m/cm1405cm4a_1500_00_1stlook_4gb_128gb_blue.jpg","updated_at":"2026-07-18T13:56:48.936766Z"},{"unique_id":"ASUS_CM1405CM4A-M8128PG","name":"ASUS Chromebook CM14 (CM1405) (CM1405CM4A-M8128PG)","maker":"asus","price":82800,"image_url":"https://store.asus.com/jp/media/catalog/product/c/m/cm1405cm4a_1500_00_1stlook_8gb_128gb_grey_1.jpg","updated_at":"2026-07-18T13:56:48.861900Z"},{"unique_id":"ASUS_CM1402FM2A-EC0046","name":"ASUS Chromebook CM14 Flip (CM1402FM2A-EC0046)","maker":"asus","price":69800,"image_url":"https://store.asus.com/jp/media/catalog/product/c/m/cm1402_1st-look_1500x1500.jpg","updated_at":"2026-07-18T13:56:49.065810Z"},{"unique_id":"ASUS_CM1505CM4A-464BU","name":"ASUS Chromebook CM15 (CM1505) (CM1505CM4A-464BU)","maker":"asus","price":64800,"image_url":"https://store.asus.com/jp/media/catalog/product/c/m/cm1505cm4a_1500_00_1stlook_4gb_64gb_blue.jpg","updated_at":"2026-07-18T13:56:48.536775Z"},{"unique_id":"ASUS_CM1505CM4A-464GR","name":"ASUS Chromebook CM15 (CM1505) (CM1505CM4A-464GR)","maker":"asus","price":64800,"image_url":"https://store.asus.com/jp/media/catalog/product/c/m/cm1505cm4a_1500_00_1stlook_4gb_64gb_green.jpg","updated_at":"2026-07-18T13:56:48.371926Z"},{"unique_id":"ASUS_CM1505CM4A-464GY","name":"ASUS Chromebook CM15 (CM1505) (CM1505CM4A-464GY)","maker":"asus","price":64800,"image_url":"https://store.asus.com/jp/media/catalog/product/c/m/cm1505cm4a_1500_00_1stlook_4gb_64gb_grey.jpg","updated_at":"2026-07-18T13:56:48.715354Z"},{"unique_id":"ASUS_CM1505CM4A-464PK","name":"ASUS Chromebook CM15 (CM1505) (CM1505CM4A-464PK)","maker":"asus","price":64800,"image_url":"https://store.asus.com/jp/media/catalog/product/c/m/cm1505cm4a_1500_00_1stlook_4gb_64gb_pink.jpg","updated_at":"2026-07-18T13:56:48.232928Z"},{"unique_id":"ASUS_CM1505CM4A-8128BU","name":"ASUS Chromebook CM15 (CM1505) (CM1505CM4A-8128BU)","maker":"asus","price":89800,"image_url":"https://store.asus.com/jp/media/catalog/product/c/m/cm1505cm4a_1500_00_1stlook_8gb_128gb_blue.jpg","updated_at":"2026-07-18T13:56:48.409797Z"},{"unique_id":"ASUS_CM1505CM4A-8128GR","name":"ASUS Chromebook CM15 (CM1505) (CM1505CM4A-8128GR)","maker":"asus","price":89800,"image_url":"https://store.asus.com/jp/media/catalog/product/c/m/cm1505cm4a_1500_00_1stlook_8gb_128gb_green.jpg","updated_at":"2026-07-18T13:56:48.473238Z"},{"unique_id":"ASUS_CM1505CM4A-8128GY","name":"ASUS Chromebook CM15 (CM1505) (CM1505CM4A-8128GY)","maker":"asus","price":89800,"image_url":"https://store.asus.com/jp/media/catalog/product/c/m/cm1505cm4a_1500_00_1stlook_8gb_128gb_grey.jpg","updated_at":"2026-07-18T13:56:48.824382Z"},{"unique_id":"ASUS_CM1505CM4A-864BU","name":"ASUS Chromebook CM15 (CM1505) (CM1505CM4A-864BU)","maker":"asus","price":76800,"image_url":"https://store.asus.com/jp/media/catalog/product/c/m/cm1505cm4a_1500_00_1stlook_8gb_64gb_blue.jpg","updated_at":"2026-07-18T13:56:49.036644Z"},{"unique_id":"ASUS_CM1505CM4A-864GR","name":"ASUS Chromebook CM15 (CM1505) (CM1505CM4A-864GR)","maker":"asus","price":76800,"image_url":"https://store.asus.com/jp/media/catalog/product/c/m/cm1505cm4a_1500_00_1stlook_8gb_64gb_green.jpg","updated_at":"2026-07-18T13:56:48.986173Z"},{"unique_id":"ASUS_CM1505CM4A-864GY","name":"ASUS Chromebook CM15 (CM1505) (CM1505CM4A-864GY)","maker":"asus","price":76800,"image_url":"https://store.asus.com/jp/media/catalog/product/c/m/cm1505cm4a_1500_00_1stlook_8gb_64gb_grey.jpg","updated_at":"2026-07-18T13:56:49.105223Z"},{"unique_id":"ASUS_CM1505CM4A-864PK","name":"ASUS Chromebook CM15 (CM1505) (CM1505CM4A-864PK)","maker":"asus","price":76800,"image_url":"https://store.asus.com/jp/media/catalog/product/c/m/cm1505cm4a_1500_00_1stlook_8gb_64gb_pink.jpg","updated_at":"2026-07-18T13:56:48.199127Z"},{"unique_id":"ASUS_CM3001DM2A-R70006","name":"ASUS Chromebook CM30 Detachable (CM3001DM2A-R70006)","maker":"asus","price":69800,"image_url":"https://store.asus.com/jp/media/catalog/product/0/0/00_1stlook_1500_cm3001dm2a-r70006.jpg","updated_at":"2026-07-18T13:56:48.960808Z"},{"unique_id":"ASUS_CM3206DM4A-TR0052","name":"ASUS Chromebook CM32 Detachable (CM3206) (CM3206DM4A-TR0052)","maker":"asus","price":74800,"image_url":"https://store.asus.com/jp/media/catalog/product/a/s/asus_cm3206_0_gray_pen_1stlook_52.jpg","updated_at":"2026-07-18T13:56:48.770185Z"},{"unique_id":"ASUS_CM3206DM4A-TR0103","name":"ASUS Chromebook CM32 Detachable (CM3206) (CM3206DM4A-TR0103)","maker":"asus","price":74800,"image_url":"https://store.asus.com/jp/media/catalog/product/a/s/asus_cm3206_0_white_pen_1stlook_00_103.jpg","updated_at":"2026-07-18T13:56:48.265212Z"},{"unique_id":"ASUS_CX1102CKA-N00010","name":"ASUS Chromebook CX1 (CX1102CKA-N00010)","maker":"asus","price":49800,"image_url":"https://store.asus.com/jp/media/catalog/product/c/x/cx1102_1st-look_20230515_no_text_1500_05.jpg","updated_at":"2026-07-18T13:56:48.406677Z"},{"unique_id":"ASUS_CX1400CKA-EB0153CEU","name":"ASUS Chromebook CX1 (CX1400CKA-EB0153CEU)","maker":"asus","price":89000,"image_url":"https://store.asus.com/jp/media/catalog/product/1/s/1stlook_cx1400_20230516_1500x1500.jpg","updated_at":"2026-07-18T13:56:48.759756Z"}]},"semantic_schema_version":3,"authority_version":"2.0","semantic_authority":"backend","ready":true}