{"meaning":{"identity":"Reality Inventory Authority","mission":"公開中の製品 Reality を一覧として提供する","user_intent":"存在する製品を一覧で確認したい","meaning_statement":"Reality Inventory 全体を公開するページ","existence_reason":"検索・発見・巡回の基盤を提供するため"},"presentation":{"title":"PC商品一覧","subtitle":"公開中のPCを一覧から探す","description":"公開中のPCをメーカー・価格・スペックなどから一覧で比較できます。"},"seo":{"title":"PC製品一覧 (234製品)","description":"234製品のReality Inventory","keywords":["PC","Products","Inventory","Semantic"],"canonical":"/catalog/","schema_jsonld":{"@context":"https://schema.org","@type":"CollectionPage","name":"Reality Inventory Authority"},"open_graph":{"title":"PC製品一覧 (234製品)","description":"234製品のReality Inventory","url":"/catalog/","image":"/images/ogp/default.webp"},"twitter":{"card":"summary_large_image","title":"PC製品一覧 (234製品)","description":"234製品のReality Inventory","image":"/images/ogp/default.webp"}},"data":{"count":234,"page":1,"page_size":20,"sort":"new","search":null,"has_next":true,"products":[{"unique_id":"ASUS_M1807GA-R5165BU","name":"ASUS Vivobook 18 (M1807) (M1807GA-R5165BU)","maker":"asus","price":199800,"image_url":"https://store.asus.com/jp/media/catalog/product/m/1/m1807ga_1500_00_1stlook_5_16_512.jpg","updated_at":"2026-07-18T13:56:49.135564Z"},{"unique_id":"ASUS_GZ302EAC-AI916C128G","name":"ROG Flow Z13-KJP GZ302EAC (GZ302EAC-AI916C128G)","maker":"asus","price":739800,"image_url":"https://store.asus.com/jp/media/catalog/product/k/j/kjp_gz302eac_1500_00_1stlook_-_.jpg","updated_at":"2026-07-18T13:56:49.131204Z"},{"unique_id":"ASUS_UM3406GA-AI7325BL","name":"ASUS Zenbook 14 (UM3406) (UM3406GA-AI7325BL); Copilot+ PC","maker":"asus","price":259800,"image_url":"https://store.asus.com/jp/media/catalog/product/u/m/um3406ga_wa_1500_00_1stlook_7_32_512.jpg","updated_at":"2026-07-18T13:56:49.127054Z"},{"unique_id":"ASUS_UX3607OA-GL245BE","name":"ASUS Zenbook SORA 16(UX3607) (UX3607OA-GL245BE);Copilot+PC​","maker":"asus","price":369800,"image_url":"https://store.asus.com/jp/media/catalog/product/u/x/ux3607oa_1500_00_1stlook_1.jpg","updated_at":"2026-07-18T13:56:49.122795Z"},{"unique_id":"ASUS_V501SV-05210H16512","name":"ASUS V500 SFF (V501SV) (V501SV-05210H16512)","maker":"asus","price":109800,"image_url":"https://store.asus.com/jp/media/catalog/product/_/h/_hfmy7osvpxrizn3b.png","updated_at":"2026-07-18T13:56:49.118270Z"},{"unique_id":"ASUS_G700TF-7265KF168W","name":"ROG G700 G700TF (G700TF-7265KF168W)","maker":"asus","price":369800,"image_url":"https://store.asus.com/jp/media/catalog/product/0/0/00_1stlook_customize_1500_g700tf-7265kf168w.jpg","updated_at":"2026-07-18T13:56:49.113758Z"},{"unique_id":"ASUS_M1607GA-AI7325BUS","name":"ASUS Vivobook 16 (M1607) (M1607GA-AI7325BUS); Copilot+ PC","maker":"asus","price":239800,"image_url":"https://store.asus.com/jp/media/catalog/product/0/0/00_m1607ga_1stlook_32_512_r7_ms365_1500.jpg","updated_at":"2026-07-18T13:56:49.109303Z"},{"unique_id":"ASUS_CM1505CM4A-864GY","name":"ASUS Chromebook CM15 (CM1505) (CM1505CM4A-864GY)","maker":"asus","price":76800,"image_url":"https://store.asus.com/jp/media/catalog/product/c/m/cm1505cm4a_1500_00_1stlook_8gb_64gb_grey.jpg","updated_at":"2026-07-18T13:56:49.105223Z"},{"unique_id":"ASUS_X1607AA-U5165BU","name":"ASUS Vivobook 16 (X1607) (X1607AA-U5165BU)","maker":"asus","price":189800,"image_url":"https://store.asus.com/jp/media/catalog/product/x/1/x1607aa_1500_00_1stlook_16.jpg","updated_at":"2026-07-18T13:56:49.100657Z"},{"unique_id":"ASUS_FA608PM-R9R506016GEC","name":"ASUS TUF Gaming A16 FA608PM (FA608PM-R9R506016GEC)","maker":"asus","price":329800,"image_url":"https://store.asus.com/jp/media/catalog/product/f/a/fa608pm_wa_1500_00_1stlook_16_512.jpg","updated_at":"2026-07-18T13:56:49.096539Z"},{"unique_id":"ASUS_V440VAK-WPC026WS","name":"ASUS V400 AiO (V440VAK) (V440VAK-WPC026WS)","maker":"asus","price":179800,"image_url":"https://store.asus.com/jp/media/catalog/product/0/0/00_1stlook_white_i5_office_1500_v440va.jpg","updated_at":"2026-07-18T13:56:49.093127Z"},{"unique_id":"ASUS_FX608JMI-I7R5060S","name":"ASUS TUF Gaming F16 (FX608JMI) (FX608JMI-I7R5060S)","maker":"asus","price":329800,"image_url":"https://store.asus.com/jp/media/catalog/product/f/x/fx608jmi_1500_00_1stlook_1500_i7_16_1_5060.jpg","updated_at":"2026-07-18T13:56:49.089364Z"},{"unique_id":"ASUS_X1407CA-U5165BUS","name":"ASUS Vivobook 14 X1407CA (X1407CA-U5165BUS)","maker":"asus","price":189800,"image_url":"https://store.asus.com/jp/media/catalog/product/0/0/00_x1407ca-u5165bus_1stlook_1500.jpg","updated_at":"2026-07-18T13:56:49.085510Z"},{"unique_id":"ASUS_UX3405CA-TU7325SIW","name":"ASUS Zenbook 14 OLED UX3405CA (UX3405CA-TU7325SIW)","maker":"asus","price":259800,"image_url":"https://store.asus.com/jp/media/catalog/product/0/0/00_1stlook_si_u7_32_oled_touch_1500_ux3405.jpg","updated_at":"2026-07-18T13:56:49.081786Z"},{"unique_id":"ASUS_G700TF-09285K219W","name":"ROG G700 (G700TF-09285K219W)","maker":"asus","price":698000,"image_url":"https://store.asus.com/jp/media/catalog/product/0/0/00_1stlook_customize_1500_g700tf-09285k219w.jpg","updated_at":"2026-07-18T13:56:49.077683Z"},{"unique_id":"ASUS_UX3407QA-PU16548BE","name":"ASUS Zenbook SORA UX3407 (UX3407QA-PU16548BE); Copilot+ PC","maker":"asus","price":249800,"image_url":"https://store.asus.com/jp/media/catalog/product/0/0/00_1stlook_be_qs_x_16_512_899g_1500_ux3407.jpg","updated_at":"2026-07-18T13:56:49.073954Z"},{"unique_id":"ASUS_V501MV--05210H16512O","name":"ASUS V500 Mini Tower (V501MV) (V501MV-05210H16512O)","maker":"asus","price":134800,"image_url":"https://store.asus.com/jp/media/catalog/product/_/3/_3je177udwctsts5b.png","updated_at":"2026-07-18T13:56:49.070298Z"},{"unique_id":"ASUS_CM1402FM2A-EC0046","name":"ASUS Chromebook CM14 Flip (CM1402FM2A-EC0046)","maker":"asus","price":69800,"image_url":"https://store.asus.com/jp/media/catalog/product/c/m/cm1402_1st-look_1500x1500.jpg","updated_at":"2026-07-18T13:56:49.065810Z"},{"unique_id":"ASUS_M3407GA-AI7321GR","name":"ASUS Vivobook S14 (M3407) (M3407GA-AI7321GR); Copilot＋ PC","maker":"asus","price":284800,"image_url":"https://store.asus.com/jp/media/catalog/product/0/0/00_m3407ga_ai7321gr_1stlook1500.jpg","updated_at":"2026-07-18T13:56:49.062411Z"},{"unique_id":"ASUS_UX3407QA-PU32148BE","name":"ASUS Zenbook SORA (UX3407) (UX3407QA-PU32148BE); Copilot+ PC","maker":"asus","price":289800,"image_url":"https://store.asus.com/jp/media/catalog/product/0/0/00_ux3407qa_pu32148be_1stlook_1500.jpg","updated_at":"2026-07-18T13:56:49.059038Z"}]},"semantic_schema_version":3,"authority_version":"2.0","semantic_authority":"backend","ready":true}